<svg viewBox="0 0 10 10" version="1.1" xmlns="http://www.w3.org/2000/svg" xmlns:xlink="http://www.w3.org/1999/xlink">
    <!-- Generator: Sketch 43.1 (39012) - http://www.bohemiancoding.com/sketch -->
    <desc>Created with Sketch.</desc>
    <defs></defs>
    <g id="Hotel" stroke="none" stroke-width="1" fill="none" fill-rule="evenodd">
        <g id="Главная-—-Поиск--—--отелей-—-по-карте-(1440)-" transform="translate(-655.000000, -153.000000)" fill-rule="nonzero" fill="#FFFFFF">
            <g id="cancel-music" transform="translate(655.000000, 153.000000)">
                <g id="Capa_1">
                    <g id="Close">
                        <path d="M6.18848519,4.99960094 L9.75385273,1.43453052 C10.0820491,1.1063615 10.0820491,0.574295775 9.75385273,0.246173709 C9.42565636,-0.0819953052 8.89359325,-0.0819953052 8.56539688,0.246173709 L4.99998239,3.81129108 L1.4345679,0.246126761 C1.10637154,-0.0820422535 0.574308422,-0.0820422535 0.246112059,0.246126761 C-0.0820373529,0.574295775 -0.0820373529,1.1063615 0.246112059,1.43448357 L3.81152655,4.99955399 L0.246112059,8.56467136 C-0.0820373529,8.89284038 -0.0820373529,9.4249061 0.246112059,9.75302817 C0.574308422,10.0811972 1.10637154,10.0811972 1.4345679,9.75302817 L4.99998239,6.1879108 L8.56539688,9.75302817 C8.89354629,10.0811972 9.42565636,10.0811972 9.75385273,9.75302817 C10.0820491,9.42485915 10.0820491,8.89284038 9.75385273,8.56467136 L6.18848519,4.99960094 Z" id="Shape"></path>
                    </g>
                </g>
            </g>
        </g>
    </g>
</svg>
