<svg viewBox="0 0 10 6" version="1.1" xmlns="http://www.w3.org/2000/svg" xmlns:xlink="http://www.w3.org/1999/xlink">
    <defs></defs>
    <g stroke="none" stroke-width="1" fill="none" fill-rule="evenodd">
        <g transform="translate(-654.000000, -86.000000)" fill-rule="nonzero" fill="#FC4955">
            <g id="angle-arrow-down" transform="translate(659.000000, 89.000000) rotate(-270.000000) translate(-659.000000, -89.000000) translate(656.000000, 84.000000)">
                <g id="Capa_1" transform="translate(0.000000, -0.000000)">
                    <path d="M7.79773961,2.6746482 L7.32325762,2.20019945 C7.26003324,2.13684211 7.18720222,2.10526316 7.10486427,2.10526316 C7.02272576,2.10526316 6.94992798,2.13684211 6.8867036,2.20019945 L3.15676454,5.92993906 L-0.57300831,2.20029917 C-0.636265928,2.13694183 -0.709063712,2.10536288 -0.791301939,2.10536288 C-0.873573407,2.10536288 -0.946371191,2.13694183 -1.00959557,2.20029917 L-1.48401108,2.67478116 C-1.54736842,2.73800554 -1.57894737,2.81080332 -1.57894737,2.89307479 C-1.57894737,2.97527978 -1.5472687,3.04807756 -1.48401108,3.11130194 L2.93847091,7.53388366 C3.00169529,7.59714127 3.07452632,7.62875346 3.15676454,7.62875346 C3.23900277,7.62875346 3.31170083,7.59714127 3.37489197,7.53388366 L7.79773961,3.11130194 C7.86096399,3.04804432 7.89237673,2.97524654 7.89237673,2.89307479 C7.89237673,2.81080332 7.86096399,2.73800554 7.79773961,2.6746482 Z" id="Shape" transform="translate(3.156715, 4.867008) rotate(-90.000000) translate(-3.156715, -4.867008) "></path>
                </g>
            </g>
        </g>
    </g>
</svg>
