<svg viewBox="0 0 9 15" version="1.1" xmlns="http://www.w3.org/2000/svg" xmlns:xlink="http://www.w3.org/1999/xlink">
    <!-- Generator: Sketch 43.1 (39012) - http://www.bohemiancoding.com/sketch -->
    <desc>Created with Sketch.</desc>
    <defs></defs>
    <g id="Hotel" stroke="none" stroke-width="1" fill="none" fill-rule="evenodd">
        <g id="Главная-—-Выбор--—--отеля-(1440)" transform="translate(-697.000000, -209.000000)" fill-rule="nonzero" fill="#8B8F9B">
            <g id="restaurant-interface-symbol-of-fork-and-knife-couple" transform="translate(697.000000, 209.000000)">
                <g id="Capa_1">
                    <g id="Group">
                        <path d="M1.34133764,5.37182657 L1.34133764,13.9549262 C1.34133764,14.1787085 1.4229797,14.3722694 1.58659594,14.5357196 C1.74733395,14.6964852 1.93754613,14.7773801 2.15670664,14.7799262 C2.37572878,14.7773801 2.56607934,14.6964576 2.72698339,14.5357196 C2.89043358,14.3722694 2.97204797,14.1787085 2.97204797,13.9549262 L2.97204797,5.37182657 C3.21730627,5.28595018 4.13665129,4.46654059 4.13665129,4.20381919 L4.13665129,0.751688192 C4.13665129,0.640073801 4.09566421,0.543182657 4.01402214,0.461374539 C3.93221402,0.379732472 3.83532288,0.338745387 3.72370849,0.338745387 C3.61176199,0.338745387 3.5150369,0.379732472 3.43339483,0.461374539 C3.35158672,0.543348708 3.31076568,0.640073801 3.31076568,0.751688192 L3.31076568,3.43591328 C3.31076568,3.54785978 3.2697786,3.64458487 3.18813653,3.72622694 C3.10632841,3.80803506 3.00960332,3.84869004 2.89782288,3.84869004 C2.78587638,3.84869004 2.68915129,3.80803506 2.60750923,3.72622694 C2.52586716,3.64458487 2.48488007,3.54769373 2.48488007,3.43591328 L2.48488007,0.751688192 C2.48488007,0.640073801 2.44389299,0.543182657 2.36225092,0.461374539 C2.28060886,0.379732472 2.18374539,0.338745387 2.07196494,0.338745387 C1.96001845,0.338745387 1.86329336,0.379732472 1.78165129,0.461374539 C1.69984317,0.543348708 1.65902214,0.640073801 1.65902214,0.751688192 L1.65902214,3.43591328 C1.65902214,3.54785978 1.61803506,3.64458487 1.53639299,3.72622694 C1.45458487,3.80803506 1.35785978,3.84869004 1.24607934,3.84869004 C1.13413284,3.84869004 1.03740775,3.80803506 0.955765683,3.72622694 C0.873957565,3.64458487 0.833136531,3.54769373 0.833136531,3.43591328 L0.833136531,0.751688192 C0.833136531,0.640073801 0.792315498,0.543182657 0.71050738,0.461374539 C0.628865314,0.379732472 0.532001845,0.338745387 0.420193727,0.338745387 C0.308247232,0.338745387 0.21152214,0.379732472 0.129907749,0.461374539 C0.0482656827,0.543348708 0.00727859779,0.640073801 0.00727859779,0.751688192 L0.00727859779,4.20368081 C0.00736162362,4.46634686 1.09607934,5.28578413 1.34133764,5.37182657 Z" id="Shape"></path>
                        <path d="M2.52569004,14.7982878 C2.46119004,14.7982878 2.40019004,14.7797878 2.33569004,14.7797878 C2.27169004,14.7797878 2.21319004,14.7982878 2.14619004,14.7982878 L2.52569004,14.7982878 Z" id="Shape"></path>
                        <path d="M7.79846494,14.9676882 C7.73396494,14.9676882 7.67346494,14.9491882 7.60896494,14.9491882 C7.54446494,14.9491882 7.48296494,14.9676882 7.41946494,14.9676882 L7.79846494,14.9676882 Z" id="Shape"></path>
                        <path d="M5.6772786,7.43324723 L6.61461255,7.43324723 L6.61461255,14.1243266 C6.61461255,14.3480535 6.69622694,14.5416697 6.85967712,14.7050646 C7.02052583,14.8658303 7.21076568,14.9467804 7.4299262,14.9493266 C7.64889299,14.9467804 7.83927122,14.8658026 8.00017528,14.7050646 C8.16362546,14.5416697 8.2454059,14.3480535 8.2454059,14.1243266 L8.2454059,0.412942804 C8.2454059,0.301328413 8.20444649,0.204437269 8.12280443,0.122629151 C8.04102399,0.0409870849 7.94432657,0 7.83254613,0 L7.53578413,0 C6.96788745,0 6.48179889,0.202250923 6.07749077,0.606531365 C5.67323801,1.01097786 5.47101476,1.4970941 5.47101476,2.06482472 L5.47101476,7.22681734 C5.47101476,7.2827214 5.49149446,7.33115314 5.5323155,7.37197417 C5.5729428,7.41276753 5.62137454,7.43324723 5.6772786,7.43324723 Z" id="Shape"></path>
                    </g>
                </g>
            </g>
        </g>
    </g>
</svg>
