<svg xmlns="http://www.w3.org/2000/svg" viewBox="0 0 17 17"><path class='hotel-icon'
  fill="#000000"
  d="M16.06.93A3.1 3.1 0 0 0 13.8 0H3.19A3.1 3.1 0 0 0 .93.93 3.1 3.1 0 0 0 0 3.19V13.8c0 .88.31 1.63.93 2.26a3.1 3.1 0 0 0 2.26.93H13.8a3.1 3.1 0 0 0 2.26-.93 3.1 3.1 0 0 0 .93-2.26V3.19a3.1 3.1 0 0 0-.93-2.26zm-2.11 13.02a.69.69 0 0 1-.5.21h-1.42a.67.67 0 0 1-.49-.21.69.69 0 0 1-.21-.5V9.91H5.66v3.54c0 .19-.07.36-.21.5a.67.67 0 0 1-.49.21H3.54a.69.69 0 0 1-.5-.21.69.69 0 0 1-.21-.5V3.54c0-.19.07-.36.21-.5a.69.69 0 0 1 .5-.21h1.42c.19 0 .35.07.49.21.14.14.21.31.21.5v3.54h5.67V3.54c0-.19.07-.36.21-.5.14-.14.3-.21.49-.21h1.42c.19 0 .36.07.5.21.14.14.21.31.21.5v9.91c0 .19-.07.36-.21.5z"/></svg>
