
<svg width="16px" height="16px" viewBox="0 0 16 16" version="1.1" xmlns="http://www.w3.org/2000/svg" xmlns:xlink="http://www.w3.org/1999/xlink">
    <g id="Desktop-home-(registered)-1440" stroke="none" stroke-width="1" fill="none" fill-rule="evenodd">
        <g id="Group-77-Copy" transform="translate(-238.000000, -345.000000)" fill="currentColor">
            <g id="Group-78" transform="translate(0.000000, 334.000000)">
                <path d="M248.921953,18.3046875 C250.393315,18.3046875 251.454502,18.3649083 252.105547,18.4853516 C252.756592,18.6057949 253.082109,18.802733 253.082109,19.0761719 C253.082109,19.3561212 252.766357,19.5563145 252.134844,19.6767578 C251.50333,19.7972011 250.432377,19.8574219 248.921953,19.8574219 L247.457109,21.8203125 L247.681719,21.8203125 C247.896564,21.8203125 248.059322,21.8528643 248.17,21.9179688 C248.280678,21.9830732 248.336016,22.0774733 248.336016,22.2011719 C248.336016,22.3248704 248.280678,22.4192705 248.17,22.484375 C248.059322,22.5494795 247.896564,22.5820312 247.681719,22.5820312 L246.900469,22.5820312 L245.962969,23.8613281 L246.177813,23.8613281 C246.392657,23.8613281 246.557044,23.8938799 246.670977,23.9589844 C246.78491,24.0240889 246.841875,24.118489 246.841875,24.2421875 C246.841875,24.365886 246.78491,24.4602861 246.670977,24.5253906 C246.557044,24.5904951 246.392657,24.6230469 246.177813,24.6230469 L245.396563,24.6230469 C245.031977,25.2545604 244.678791,25.6988919 244.336992,25.9560547 C243.995194,26.2132174 243.596435,26.3417969 243.140703,26.3417969 L242.935625,26.3417969 C243.632243,24.8964771 244.187251,23.6269586 244.600664,22.5332031 C245.014078,21.4394477 245.220781,20.723309 245.220781,20.3847656 C245.220781,20.0266909 244.618574,19.8151045 243.414141,19.75 C242.450594,19.6979164 241.627035,19.6263025 240.943438,19.5351562 C240.813229,19.632813 240.624428,19.8427718 240.377031,20.1650391 C240.129634,20.4873063 239.810627,20.9381481 239.42,21.5175781 C239.244218,21.5631513 239.063556,21.6022134 238.878008,21.6347656 C238.69246,21.6673179 238.502032,21.6966145 238.306719,21.7226562 C238.495522,21.2604144 238.653398,20.8291036 238.780352,20.4287109 C238.907305,20.0283183 239.006588,19.6458352 239.078203,19.28125 C238.987057,19.2682291 238.889402,19.2454429 238.785234,19.2128906 C238.681067,19.1803384 238.573646,19.1347659 238.462969,19.0761719 C238.547605,19.0371092 238.640377,19.0013022 238.741289,18.96875 C238.842201,18.9361978 238.954505,18.9069012 239.078203,18.8808594 C239.000078,18.5032533 238.895912,18.1110046 238.765703,17.7041016 C238.635494,17.2971985 238.479246,16.8756532 238.296953,16.4394531 C238.602944,16.4785158 238.957758,16.5403642 239.361406,16.625 C239.387448,16.6315104 239.406979,16.6380208 239.42,16.6445312 C239.810627,17.2304717 240.129634,17.6845687 240.377031,18.0068359 C240.624428,18.3291032 240.809973,18.5325517 240.933672,18.6171875 C241.578206,18.5455726 242.365959,18.4837242 243.296953,18.4316406 C244.579512,18.3600257 245.220781,18.1419289 245.220781,17.7773438 C245.220781,17.4453108 245.015705,16.7389377 244.605547,15.6582031 C244.195389,14.5774686 243.638754,13.2981845 242.935625,11.8203125 L243.140703,11.8203125 C243.596435,11.8203125 243.995194,11.9488919 244.336992,12.2060547 C244.678791,12.4632174 245.031977,12.9075489 245.396563,13.5390625 L246.177813,13.5390625 C246.392657,13.5390625 246.557044,13.5716143 246.670977,13.6367188 C246.78491,13.7018232 246.841875,13.7962233 246.841875,13.9199219 C246.841875,14.0436204 246.78491,14.1380205 246.670977,14.203125 C246.557044,14.2682295 246.392657,14.3007812 246.177813,14.3007812 L245.962969,14.3007812 L246.900469,15.5800781 L247.681719,15.5800781 C247.896564,15.5800781 248.059322,15.6126299 248.17,15.6777344 C248.280678,15.7428389 248.336016,15.837239 248.336016,15.9609375 C248.336016,16.084636 248.280678,16.1790361 248.17,16.2441406 C248.059322,16.3092451 247.896564,16.3417969 247.681719,16.3417969 L247.457109,16.3417969 L248.921953,18.3046875 Z" id="✈"></path>
            </g>
        </g>
    </g>
</svg>
