<svg  viewBox="0 0 20 19" version="1.1" xmlns="http://www.w3.org/2000/svg" xmlns:xlink="http://www.w3.org/1999/xlink">
    <!-- Generator: Sketch 43.1 (39012) - http://www.bohemiancoding.com/sketch -->
    <desc>Created with Sketch.</desc>
    <defs></defs>
    <g id="Desktop-home-(registered)-1440" stroke="none" stroke-width="1" fill="none" fill-rule="evenodd" font-size="25" font-family="ZapfDingbatsITC, Zapf Dingbats" font-weight="normal">
        <text id="✈-copy-8" fill="#FFFFFF">
            <tspan x="0.0945224565" y="18">✈</tspan>
        </text>
    </g>
</svg>
